 [
     {
         "imageUrl":"../../../../src/assets/images/content/1.png"
     },
     {
       "imageUrl":"../../../../src/assets/images/content/1.png"
     },
     {
       "imageUrl":"../../../../src/assets/images/content/1.png"
     },
     {
       "imageUrl":"../../../../src/assets/images/content/1.png"
     },
     {
       "imageUrl":"../../../../src/assets/images/content/1.png"
     }
 ]