{
    "config": {
        "headerText": "QUICK LINKS",
        "columns": {
            "lg": 3,
            "xl": 6
        }
    },
    "data": [
        {
            "iconURL" : "../../../src/assets/images/css/prospecting.svg",
            "linkText": "Prospecting",
            "linkURL": "#",
            "description": "Access to social selling tools"
        },
        {
            "iconURL" : "../../../src/assets/images/css/media-centre.svg",
            "linkText": "Media Center",
            "linkURL": "#",
            "description": "Content from Nu Skin"
        },
        {
            "iconURL" : "../../../src/assets/images/css/my-store.svg",
            "linkText": "My Store",
            "linkURL": "#",
            "description": "Set up your website and products"
        },
        {
            "iconURL" : "../../../src/assets/images/css/mbs-share.png",
            "linkText": "My Story",
            "linkURL": "#",
            "description": "Set up your story"
        },
        {
            "iconURL" : "../../../src/assets/images/css/training.svg",
            "linkText": "Training",
            "linkURL": "#",
            "description": "Extend your knowledge about Nu skin"
        },
        {
            "iconURL" : "../../../src/assets/images/css/order.svg",
            "linkText": "Orders",
            "linkURL": "#",
            "description": "Manage and track orders"
        },
        {
            "iconURL" : "../../../src/assets/images/css/ic-profile.svg",
            "linkText": "Account",
            "linkURL": "#",
            "description": "Set all your preferences"
        }
    ]
}
