{
    "productList": [{
        "productID": "1",
        "productImage": "../../../../../src/assets/images/content/agelocproduct.svg",
        "productDescription": "ageLoc TRueface Essential Ultra"
    }, {
        "productID": "2",
        "productImage": "../../../../../src/assets/images/content/ageloctrueface.svg",
        "productDescription": "ageLoc Product Longer Name Product"
    }, {
        "productID": "3",
        "productImage": "../../../../../src/assets/images/content/agelocproduct.svg",
        "productDescription": "ageLoc TRueface Essential Ultra"
    }, {
        "productID": "4",
        "productImage": "../../../../../src/assets/images/content/ageloctrueface.svg",
        "productDescription": "ageLoc Product Longer Name Product"
    },{
        "productID": "5",
        "productImage": "../../../../../src/assets/images/content/agelocproduct.svg",
        "productDescription": "ageLoc TRueface Essential Ultra"
    }]
}
