[
 {
   "title": "A",
   "content": "Dynamic Group Body - 1",
   "items": [
     {
       "item": "AGELOC SERUM CREAM (US) M4",
       "count": "1"
     },
     {
       "item": "Alpha Lipoic Acid",
       "count": "2"
     },
     {
       "item": "Agmatine Sulfate",
       "count": "3"
     },
     {
       "item": "Almonds",
       "count": "4"
     },
     {
       "item": "Aloe",
       "count": "5"
     },
     {
       "item": "Amino Acids",
       "count": "6"
     }
   ]
 },
 {
   "title": "B",
   "content": "Dynamic Group Body - 2",
   "items": [
     {
       "item": "Basil",
       "count": "1"
     },
     {
       "item": "Baloon",
       "count": "2"
     },
     {
       "item": "Ball",
       "count": "3"
     }
   ]
 },
 {
   "title": "C",
   "content": "Dynamic Group Body - 2",
   "items": [
     {
       "item": "Basil",
       "count": "1"
     },
     {
       "item": "Baloon",
       "count": "2"
     },
     {
       "item": "Ball",
       "count": "3"
     }
   ]
 },
 {
   "title": "D",
   "content": "Dynamic Group Body - 2",
   "items": [
     {
       "item": "Basil",
       "count": "1"
     },
     {
       "item": "Baloon",
       "count": "2"
     },
     {
       "item": "Ball",
       "count": "3"
     }
   ]
 },
 {
   "title": "E",
   "content": "Dynamic Group Body - 2",
   "items": [
     {
       "item": "Basil",
       "count": "1"
     },
     {
       "item": "Baloon",
       "count": "2"
     },
     {
       "item": "Ball",
       "count": "3"
     }
   ]
 },
 {
   "title": "F",
   "content": "Dynamic Group Body - 2",
   "items": [
     {
       "item": "Basil",
       "count": "1"
     },
     {
       "item": "Baloon",
       "count": "2"
     },
     {
       "item": "Ball",
       "count": "3"
     }
   ]
 },
 {
   "title": "G",
   "content": "Dynamic Group Body - 2",
   "items": [
     {
       "item": "Basil",
       "count": "1"
     },
     {
       "item": "Baloon",
       "count": "2"
     },
     {
       "item": "Ball",
       "count": "3"
     }
   ]
 },
 {
   "title": "H",
   "content": "Dynamic Group Body - 2",
   "items": [
     {
       "item": "Basil",
       "count": "1"
     },
     {
       "item": "Baloon",
       "count": "2"
     },
     {
       "item": "Ball",
       "count": "3"
     }
   ]
 },
 {
   "title": "I",
   "content": "Dynamic Group Body - 2",
   "items": [
     {
       "item": "Basil",
       "count": "1"
     },
     {
       "item": "Baloon",
       "count": "2"
     },
     {
       "item": "Ball",
       "count": "3"
     }
   ]
 },
 {
   "title": "J",
   "content": "Dynamic Group Body - 2",
   "items": [
     {
       "item": "Basil",
       "count": "1"
     },
     {
       "item": "Baloon",
       "count": "2"
     },
     {
       "item": "Ball",
       "count": "3"
     }
   ]
 },
 {
   "title": "K",
   "content": "Dynamic Group Body - 2",
   "items": [
     {
       "item": "Basil",
       "count": "1"
     },
     {
       "item": "Baloon",
       "count": "2"
     },
     {
       "item": "Ball",
       "count": "3"
     }
   ]
 }
]
