[
  {
    "categoryTitle": "Face Wash",
    "productData":[
      {
        "isShown": false,
        "ratingCount": 4,
        "ratingTotal": 13,
        "productImage": "../../../../src/assets/images/content/facewash-2.png",
        "productTitle": "ageLOC Product Name Longer Name Product",
        "productUrl": "",
        "productPrice": "$68.00",
        "psv": "340",
        "discount": "",
        "isNew" : "false",
        "topRated": "false",
        "priceChanged": "false",
        "stockStatus": "OS"
      },
      {
        "isShown": false,
        "ratingCount": 4,
        "ratingTotal": 13,
        "productImage": "../../../../src/assets/images/content/pdp-productbasics/product1.jpg",
        "productTitle": "OverDrive Performance Enhancement Dietary Supplement",
        "productUrl": "",
        "productPrice": "$68.00",
        "psv": "340",
        "discount": "",
        "isNew" : "true",
        "topRated": "true",
        "priceChanged": "true",
        "productPricePrev": "$68.00",
        "psvPrev": "340",
        "stockStatus": "OS"
      },
      {
        "isShown": false,
        "ratingCount": 4,
        "ratingTotal": 13,
        "productImage": "../../../../src/assets/images/content/facewash-3.png",
        "productTitle": "LifePak Prime",
        "productUrl": "",
        "productPrice": "$68.00",
        "psv": "340",
        "discount": "50%",
        "isNew" : "false",
        "topRated": "false",
        "priceChanged": "true",
        "productPricePrev": "$68.00",
        "psvPrev": "340",
        "stockStatus": "BO"
      },
      {
        "isShown": false,
        "ratingCount": 4,
        "ratingTotal": 13,
        "productImage": "../../../../src/assets/images/content/facewash-4.png",
        "productTitle": "ageLOC Product Name Longer Name Product",
        "productUrl": "",
        "productPrice": "$68.00",
        "psv": "340",
        "discount": "",
        "isNew" : "false",
        "topRated": "true",
        "priceChanged": "false",
        "stockStatus": ""
    },
    {
      "isShown": false,
      "ratingCount": 4,
      "ratingTotal": 13,
      "productImage": "../../../../src/assets/images/content/facewash-4.png",
      "productTitle": "ageLOC Product Name Longer Name Product",
      "productUrl": "",
      "productPrice": "$68.00",
      "psv": "340",
      "discount": "",
      "isNew" : "false",
      "topRated": "true",
      "priceChanged": "false",
      "stockStatus": ""
    }
    ]
  },
  {
    "categoryTitle": "Moisturizers (L4)",
    "productData":[
      {
        "isShown": false,
        "ratingCount": 4,
        "ratingTotal": 13,
        "productImage": "../../../../src/assets/images/content/moisturizer-1.png",
        "productTitle": "ageLOC Daily Use Moisturizing Mist",
        "productUrl": "",
        "productPrice": "$68.00",
        "psv": "340",
        "discount": "",
        "isNew" : "true",
        "topRated": "true",
        "priceChanged": "true",
        "productPricePrev": "$68.00",
        "psvPrev": "340",
        "stockStatus": "OS"
      },
      {
        "isShown": false,
        "ratingCount": 4,
        "ratingTotal": 13,
        "productImage": "../../../../src/assets/images/content/moisturizer-2.png",
        "productTitle": "ageLOC Product Name Longer Name Product",
        "productUrl": "",
        "productPrice": "$68.00",
        "psv": "340",
        "discount": "",
        "isNew" : "flase",
        "topRated": "false",
        "priceChanged": "true",
        "productPricePrev": "$68.00",
        "psvPrev": "340",
        "stockStatus": ""
      },
      {
        "isShown": false,
        "ratingCount": 4,
        "ratingTotal": 13,
        "productImage": "../../../../src/assets/images/content/moisturizer-3.png",
        "productTitle": "ageLOC Face Lotion SPF 15",
        "productUrl": "",
        "productPrice": "$68.00",
        "psv": "340",
        "discount": "30%",
        "isNew" : "false",
        "topRated": "true",
        "priceChanged": "true",
        "productPricePrev": "$68.00",
        "psvPrev": "340",
        "stockStatus": "LS"

      }
    ]
  }
]
