[
  {
    "profilePic": "../../../../src/assets/images/css/avatar.png",
    "name": "Ron Smith",
    "place": "Seattle, WA"
  },
  {
    "profilePic": "../../../../src/assets/images/css/avatar.png",
    "name": "Ron Smith",
    "place": "Seattle, WA"
  },
  {
    "profilePic": "../../../../src/assets/images/css/avatar.png",
    "name": "Ron Smith",
    "place": "Seattle, WA"
  },
  {
    "profilePic": "../../../../src/assets/images/css/avatar.png",
    "name": "Ron Smith",
    "place": "Seattle, WA"
  },
  {
    "profilePic": "../../../../src/assets/images/css/avatar.png",
    "name": "Ron Smith",
    "place": "Seattle, WA"
  },
  {
    "profilePic": "../../../../src/assets/images/css/avatar.png",
    "name": "Ron Smith",
    "place": "Seattle, WA"
  },
  {
    "profilePic": "../../../../src/assets/images/css/avatar.png",
    "name": "Ron Smith",
    "place": "Seattle, WA"
  },
  {
    "profilePic": "../../../../src/assets/images/css/avatar.png",
    "name": "Ron Smith",
    "place": "Seattle, WA"
  },
  {
    "profilePic": "../../../../src/assets/images/css/avatar.png",
    "name": "Ron Smith",
    "place": "Seattle, WA"
  },
  {
    "profilePic": "../../../../src/assets/images/css/avatar.png",
    "name": "Ron Smith",
    "place": "Seattle, WA"
  },
  {
    "profilePic": "../../../../src/assets/images/css/avatar.png",
    "name": "Ron Smith",
    "place": "Seattle, WA"
  },
  {
    "profilePic": "../../../../src/assets/images/css/avatar.png",
    "name": "Ron Smith",
    "place": "Seattle, WA"
  }
]
