[
     { "Key": "Cu qui nullam imperdiet aliquando" },
     { "Key": "Super-duper Long Product Name Goes Right Here" },
     { "Key": "SuperLong Product Name Goes Here 3" },
     { "Key": "Lorem ipsum dolor sit amet, ex eam dictas melius laboramus" },
     { "Key": "Te harum oratio blandit usu. Eu cum summo referrentur, nec te dicat" },
     { "Key": "Super-duper Long Product Name Goes Right Here 33333" },
     { "Key": "1234567890" },
     { "Key": "1234567891" },
     { "Key": "1234567892" },
     { "Key": "1234567893" },
     { "Key": "1234567894" },
     { "Key": "1234567895" }
]