[
        {
        "icon_name" : "Facebook",
        "icon_url" : "https://www.facebook.com",
        "icon_img" : "../../../../src/assets/images/content/ic-facebook.svg"
        },
        {
        "icon_name" : "Twitter",
        "icon_url" : "https://www.twitter.com",
        "icon_img" : "../../../../src/assets/images/content/ic-twitter.svg"
        },
        {
        "icon_name" : "Instagram",
        "icon_url" : "https://www.instagram.com",
        "icon_img" : "../../../../src/assets/images/content/ic-instagram.svg"
        },
        {
        "icon_name" : "Pinterest",
        "icon_url" : "https://www.pinterest.com",
        "icon_img" : "../../../../src/assets/images/content/ic-pinterest.svg"
        },
        {
        "icon_name" : "Share",
        "icon_url" : "https://www.share.com",
        "icon_img" : "../../../../src/assets/images/content/ic-share.svg"
        }
]