<svg xmlns="http://www.w3.org/2000/svg" xmlns:xlink="http://www.w3.org/1999/xlink" width="18" height="18" viewBox="0 0 18 18">
    <defs>
        <path id="a" d="M0 0h24v24H0z"/>
    </defs>
    <g fill="none" fill-rule="evenodd" transform="translate(-3 -4)">
        <mask id="b" fill="#fff">
            <use xlink:href="#a"/>
        </mask>
        <g stroke="#FFF" stroke-linecap="round" stroke-width="1.125" mask="url(#b)">
            <path d="M14.844 15.844c-2.473 2.472-6.517 2.472-8.99 0-2.472-2.473-2.472-6.517 0-8.99 2.473-2.472 6.517-2.472 8.99 0 2.472 2.502 2.472 6.517 0 8.99zM14.93 15.93l4.975 4.975"/>
        </g>
    </g>
</svg>
