{
        "title" :       "my content",
        "data"  : [
        {
                "product_id"    : "12341",
                "content_type"  : "video",
                "thumbnail_url" : "../../../../src/assets/images/content/media1.jpg",
                "product_desc"  : "Long Long Long",
                "product_name"  : "Long Product Name",
                "product_logo"  : "../../../../src/assets/images/css/ic-asset-audio@3x.png",
                "share_logo"    : "../../../../src/assets/images/content/ic-share@3x.png",
                "isFavorite"    : false,
                "imageAbsent"   : true,
                "uploadImage"   : "../../../../src/assets/images/css/image-upload.gif"
        },
        {
                "product_id"    : "12342",
                "content_type"  : "video",
                "thumbnail_url" : "../../../../src/assets/images/content/media2.jpg",
                "product_desc"  : "Long Long Long",
                "product_name"  : "Long Product Name",
                "product_logo"  : "../../../../src/assets/images/css/ic-asset-image@3x.png",
                "share_logo"    : "../../../../src/assets/images/content/ic-share@3x.png",
                "isFavorite"    : false,
                "imageAbsent"   : true,
                "uploadImage"   : "../../../../src/assets/images/css/image-upload.gif"
        },
        {
                "product_id"    : "12343",
                "content_type"  : "video",
                "thumbnail_url" : "../../../../src/assets/images/content/media5.jpg",
                "product_desc"  : "Long Long Long",
                "product_name"  : "Long Product Name",
                "product_logo"  : "../../../../src/assets/images/css/ic-asset-audio@3x.png",
                "share_logo"    : "../../../../src/assets/images/content/ic-share@3x.png",
                "isFavorite"    : false,
                "imageAbsent"   : false
        },
        {
                "product_id"    : "12344",
                "content_type"  : "video",
                "thumbnail_url" : "../../../../src/assets/images/content/media6.png",
                "product_desc"  : "Long Long Long",
                "product_name"  : "Long Product Name",
                "product_logo"  : "../../../../src/assets/images/css/ic-asset-image@3x.png",
                "share_logo"    : "../../../../src/assets/images/content/ic-share-copy-105@3x.png",
                "isFavorite"    : false,
                "imageAbsent"   : false
        },
        {
                "product_id"    : "12345",
                "content_type"  : "video",
                "thumbnail_url" : "../../../../src/assets/images/content/media7.png",
                "product_desc"  : "Long Long Long",
                "product_name"  : "Long Product Name",
                "product_logo"  : "../../../../src/assets/images/css/ic-asset-video@3x.png",
                "share_logo"    : "../../../../src/assets/images/content/ic-share-copy-105@3x.png",
                "isFavorite"    : false,
                "imageAbsent"   : false
        },
        {
                "product_id"    : "12341",
                "content_type"  : "video",
                "thumbnail_url" : "../../../../src/assets/images/content/getty-images-499778755@3x.jpg",
                "product_desc"  : "Long Long Long",
                "product_name"  : "Long Product Name",
                "product_logo"  : "../../../../src/assets/images/css/ic-asset-video@3x.png",
                "share_logo"    : "../../../../src/assets/images/content/ic-share-copy-105@3x.png",
                "isFavorite"    : false,
                "imageAbsent"   : false
        },
        {
                "product_id"    : "12342",
                "content_type"  : "video",
                "thumbnail_url" : "../../../../src/assets/images/content/getty-images-499778755@3x.jpg",
                "product_desc"  : "Long Long Long",
                "product_name"  : "Long Product Name",
                "product_logo"  : "../../../../src/assets/images/css/ic-asset-video@3x.png",
                "share_logo"    : "../../../../src/assets/images/content/ic-share-copy-105@3x.png",
                "isFavorite"    : false,
                "imageAbsent"   : false
        },
        {
                "product_id"    : "12343",
                "content_type"  : "video",
                "thumbnail_url" : "../../../../src/assets/images/content/bitmap-copy-18@3x.png",
                "product_desc"  : "Long Long Long",
                "product_name"  : "Long Product Name",
                "product_logo"  : "../../../../src/assets/images/css/ic-asset-audio@3x.png",
                "share_logo"    : "../../../../src/assets/images/content/ic-share-copy-105@3x.png",
                "isFavorite"    : false,
                "imageAbsent"   : false
        },
        {
                "product_id"    : "12344",
                "content_type"  : "video",
                "thumbnail_url" : "../../../../src/assets/images/content/getty-images-499778755@3x.jpg",
                "product_desc"  : "Long Long Long",
                "product_name"  : "Long Product Name",
                "product_logo"  : "../../../../src/assets/images/css/ic-asset-image@3x.png",
                "share_logo"    : "../../../../src/assets/images/content/ic-share-copy-105@3x.png",
                "isFavorite"    : false,
                "imageAbsent"   : false
        },
        {
                "product_id"    : "12345",
                "content_type"  : "video",
                "thumbnail_url" : "../../../../src/assets/images/content/getty-images-499778755@3x.jpg",
                "product_desc"  : "Long Long Long",
                "product_name"  : "Long Product Name",
                "product_logo"  : "../../../../src/assets/images/css/ic-asset-video@3x.png",
                "share_logo"    : "../../../../src/assets/images/content/ic-share-copy-105@3x.png",
                "isFavorite"    : false,
                "imageAbsent"   : false
        },
        {
                "product_id"    : "12346",
                "content_type"  : "video",
                "thumbnail_url" : "../../../../src/assets/images/content/getty-images-499778755@3x.jpg",
                "product_desc"  : "Long Long Long",
                "product_name"  : "Long Product Name",
                "product_logo"  : "../../../../src/assets/images/css/ic-asset-image@3x.png",
                "share_logo"    : "../../../../src/assets/images/content/ic-share-copy-105@3x.png",
                "isFavorite"    : false,
                "imageAbsent"   : false
        },
        {
                "product_id"    : "12347",
                "content_type"  : "video",
                "thumbnail_url" : "../../../../src/assets/images/content/getty-images-499778755@3x.jpg",
                "product_desc"  : "Long Long Long",
                "product_name"  : "Long Product Name",
                "product_logo"  : "../../../../src/assets/images/css/ic-asset-video@3x.png",
                "share_logo"    : "../../../../src/assets/images/content/ic-share-copy-105@3x.png",
                "isFavorite"    : false,
                "imageAbsent"   : false
        },
        {
                "product_id"    : "12348",
                "content_type"  : "video",
                "thumbnail_url" : "../../../../src/assets/images/content/bitmap-copy-18@3x.png",
                "product_desc"  : "Long Long Long",
                "product_name"  : "Long Product Name",
                "product_logo"  : "../../../../src/assets/images/css/ic-asset-image@3x.png",
                "share_logo"    : "../../../../src/assets/images/content/ic-share-copy-105@3x.png",
                "isFavorite"    : false,
                "imageAbsent"   : false
        },
        {
                "product_id"    : "12349",
                "content_type"  : "video",
                "thumbnail_url" : "../../../../src/assets/images/content/getty-images-499778755@3x.jpg",
                "product_desc"  : "Long Long Long",
                "product_name"  : "Long Product Name",
                "product_logo"  : "../../../../src/assets/images/css/ic-asset-image@3x.png",
                "share_logo"    : "../../../../src/assets/images/content/ic-share-copy-105@3x.png",
                "isFavorite"    : false,
                "imageAbsent"   : false
        },
        {
                "product_id"    : "12340",
                "content_type"  : "video",
                "thumbnail_url" : "../../../../src/assets/images/content/getty-images-499778755@3x.jpg",
                "product_desc"  : "Long Long Long",
                "product_name"  : "Long Product Name",
                "product_logo"  : "../../../../src/assets/images/css/ic-asset-audio@3x.png",
                "share_logo"    : "../../../../src/assets/images/content/ic-share-copy-105@3x.png",
                "isFavorite"    : false,
                "imageAbsent"   : false
        },
        {
                "product_id"    : "12351",
                "content_type"  : "video",
                "thumbnail_url" : "../../../../src/assets/images/content/getty-images-499778755@3x.jpg",
                "product_desc"  : "Long Long Long",
                "product_name"  : "Long Product Name",
                "product_logo"  : "../../../../src/assets/images/css/ic-asset-image@3x.png",
                "share_logo"    : "../../../../src/assets/images/content/ic-share-copy-105@3x.png",
                "isFavorite"    : false,
                "imageAbsent"   : false
        },
        {
                "product_id"    : "12352",
                "content_type"  : "video",
                "thumbnail_url" : "../../../../src/assets/images/content/big-image.jpg",
                "product_desc"  : "Long Long Long",
                "product_name"  : "Long Product Name",
                "product_logo"  : "../../../../src/assets/images/css/ic-asset-video@3x.png",
                "share_logo"    : "../../../../src/assets/images/content/ic-share-copy-105@3x.png",
                "isFavorite"    : false,
                "imageAbsent"   : false
        },
        {
                "product_id"    : "12353",
                "content_type"  : "video",
                "thumbnail_url" : "../../../../src/assets/images/content/bitmap-copy-18@3x.png",
                "product_desc"  : "Long Long Long",
                "product_name"  : "Long Product Name",
                "product_logo"  : "../../../../src/assets/images/css/ic-asset-audio@3x.png",
                "share_logo"    : "../../../../src/assets/images/content/ic-share-copy-105@3x.png",
                "isFavorite"    : false,
                "imageAbsent"   : false
        }
        ]
}
