{
	"asset_id" : "1",
	"content_type" : "Image",
	"item_name" : "Product Long Long Name",
	"totalRatings": "240",
	"rating" : 3,
	"content_contributor" : "Contributor Name",
	"published" : "10 Days Ago",
	"content_description" : "Lorem ipsum dolor sit amet, consectetur adipiscing elit, sed do eiusmod tempor incididunt ut labore et dolore magna aliqua. Ut enim ad minim veniam, quis nostrud exercitation ullamco laboris nisi ut aliquip ex ea commodo consequat.",
	"content_logo"  : "../../../../src/assets/images/css/ic-asset-image@3x.png",
	"content_media" : "../../../../src/assets/images/content/product1.jpg",
	"isFavorite" : false,
	"downloads" : "1,276",
	"tags" : [
		{
			"content" : "TAG 1"
		},
		{
			"content" : "TAG 2"
		}
	],
    "downloadInfo" : [
        {
            "category" : "Small",
            "tag" : "Best for Social",
            "dimension" : "250px x 150px",
            "size": "450KB"
        },
        {
            "category" : "Medium",
            "tag" : "Best for Web",
            "dimension" : "550px x 350px",
            "size": "821KB"
        },
        {
            "category" : "Large",
            "tag" : "Best for Web",
            "dimension" : "960px x 640px",
            "size": "1.1MB"
        },
        {
            "category" : "Extra Large",
            "tag" : "Best for Print",
            "dimension" : "1200px x 500px",
            "size": "3MB"
        }
    ]
}