{
	"asset_id" : "2",
	"content_type" : "Video",
	"item_name" : "Ageloc TRU FACE Essence Ultra",
	"totalRatings": "120",
	"rating" : 1,
	"content_contributor" : "Nu Skin Corporate",
	"published" : "10 Days Ago",
	"content_description" : "Lorem ipsum dolor sit amet, consectetur adipiscing elit, sed do eiusmod tempor incididunt ut labore et dolore magna aliqua. Ut enim ad minim veniam, quis nostrud exercitation ullamco laboris nisi ut aliquip ex ea commodo consequat.",
	"content_logo"  : "../../../../src/assets/images/css/ic-asset-video@3x.png",
	"content_media" : "../../../../src/assets/videos/testimonial-video.mp4",
	"isFavorite" : "false",
	"downloads" : "1566",
	"tags" : [
		{
			"content" : "TR90"
		},
		{
			"content" : "HOW TO"
		}
	],
    "downloadInfo" : [
        {
            "category" : "Small",
            "tag" : "Best for Social",
            "dimension" : "250px x 150px",
            "size": "450KB"
        },
        {
            "category" : "Medium",
            "tag" : "Best for Web",
            "dimension" : "550px x 350px",
            "size": "821KB"
        },
        {
            "category" : "Large",
            "tag" : "Best for Web",
            "dimension" : "960px x 640px",
            "size": "1.1MB"
        },
        {
            "category" : "Extra Large",
            "tag" : "Best for Print",
            "dimension" : "1200px x 500px",
            "size": "3MB"
        }
    ]
}