{
        "upsellHeader" : "Get the most from your ageLOC True Face by applying it after ageLOC Future Serum.",
        "upsellPrice"   : "$320.00",
        "productA" : {
                "name"          :       "ageLOC TRU FACE Starter",
                "imageUrl"      :       "../../../../src/assets/images/content/ageloc-elements.png",
                "shortDesc"     :       "Concentrated anti-aging for people who want daily results.",
                "ProdInlinePrice":      "$50.00",
                "PSVDesc"       :       "LOREM 1230"
                }
}
