{
  "user":"JOHN DOE",
  "bagItems": [
    {
      "itemNo": 321,
      "quantity": 1,
      "size": "10oz/bottle",
      "psv": "140.00",
      "itemImage": "../../../../../src/assets/images/content/promotions/promo-img-4.jpg",
      "itemCode": 1234567890,
      "itemCost": 150.00,
      "itemDesc": "",
      "discount":"25%",
      "isNew": "false",
      "stockStatus": "",
      "stockUpdate":"",
      "stockDescription":"",
      "itemName": "Item name goes here"

    },
    {
      "itemNo": 432,
      "quantity": 1,
      "size": "10oz/bottle",
      "psv": "140.00",
      "itemImage": "../../../../../src/assets/images/content/promotions/promo-img-1.jpg",
      "itemCode": 1234567890,
      "itemCost": 100.00,
      "itemDesc": "second line if needed",
      "discount":"",
      "isNew": "true",
      "stockStatus": "LS",
      "stockUpdate":"Only 2 pieces left",
      "stockDescription":"We have updated your cart accordingly",
      "itemName": "Item name goes here"
    }
  ],
  "orderSummary":{
    "bagTotal": "400.46",
    "taxes": "20.46",
    "shipping": "Free",
    "estimatedTotal": "481.32",
    "promoCode":"",
    "promoCodeList":[""]
  },
  "shippingAddress": {
    "firstName" : "Mathew",
    "lastName": "Nina",
    "addressLine1": "1234567th Street",
    "addressLine2": "Apt #467",
    "city": "Seatle",
    "zipCode": "98122",
    "state": "WA",
    "email": "nan@gmail.com",
    "phone": "(123) 123-1321"
  },
  "deliveryOptions":{
    "name": "Standard Shipping",
    "description": "Your package will arrive on",
    "price": "Free",
    "deliveryDate": "Friday, May 8th",
    "deliveryDays":10
  },
  "paymentMethod":{
    "fullName":"Nina Mathew",
    "endingWith":"3434",
    "expirationDate":"09/19",
    "isSameAsShipping":true,
    "cvv": null
  },
  "psvData":{
    "currentPSV": 135.50,
    "afterOrderPSV": 240.50
  }
}
